6 Finch Analysis | Comparing Populations: Introduction to Data Analysis in R
…
If you get an error at this point (red text in the console output) see the two warnings below.

Warning If you didn’t run the two library() commands, then when your run read_excel() you will get an error that says:

Error in read_excel() : could not find function "read_excel"

To solve this error, run the two library() commands and then retry reading the data.

6.5 Inspect the data

To look at an object you have just created, print it to the console window by typing its name and running it:

# print the results in the console
finches
#> # A tibble: 100 x 12
#>    band species sex   first_adult_year last_year outcome weight  wing tarsus
#>   <dbl> <chr>   <chr>            <dbl>     <dbl> <chr>    <dbl> <dbl>  <dbl>
#> 1     9 Geospi… unkn…             1975      1977 died      14.5  67     18  
#> 2    12 Geospi… fema…             1975      1977 died      13.5  66     18.3
#> 3   276 Geospi… unkn…             1976      1977 died      16.4  64.2   18.5
#> 4   278 Geospi… unkn…             1976      1977 died      18.5  67.2   19.3
#> 5   283 Geospi… male              1976      1977 died      17.4  70.2   19.3
#> 6   288 Geospi… unkn…             1976      1977 died      16.3  71.2   20.3
#> # … with 94 more rows, and 3 more variables: beak_length <dbl>,
#> #   beak_depth <dbl>, beak_width <dbl>
…
